{
  "swagger": "2.0",
  "info": {
    "title": "DNS API",
    "version": "1.0",
    "contact": {
      "name": "StackPath Support",
      "url": "https://support.stackpath.com/"
    }
  },
  "host": "gateway.stackpath.com",
  "schemes": [
    "https"
  ],
  "consumes": [
    "application/json"
  ],
  "produces": [
    "application/json"
  ],
  "paths": {
    "/dns/v1/discovery/{domain}/provider_details": {
      "get": {
        "operationId": "GetDiscoveryProviderDetails",
        "responses": {
          "200": {
            "description": "",
            "schema": {
              "$ref": "#/definitions/zoneGetDiscoveryProviderDetailsResponse"
            }
          },
          "401": {
            "description": "Returned when an unauthorized request is attempted.",
            "schema": {
              "$ref": "#/definitions/stackpathapiStatus"
            }
          },
          "500": {
            "description": "Internal server error.",
            "schema": {
              "$ref": "#/definitions/stackpathapiStatus"
            }
          },
          "default": {
            "description": "Default error structure.",
            "schema": {
              "$ref": "#/definitions/stackpathapiStatus"
            }
          }
        },
        "parameters": [
          {
            "name": "domain",
            "in": "path",
            "required": true,
            "type": "string"
          }
        ],
        "tags": [
          "Zone"
        ]
      }
    },
    "/dns/v1/discovery/{domain}/records": {
      "post": {
        "operationId": "ScanDomainForRecords",
        "responses": {
          "200": {
            "description": "",
            "schema": {
              "$ref": "#/definitions/zoneScanDomainForRecordsResponse"
            }
          },
          "401": {
            "description": "Returned when an unauthorized request is attempted.",
            "schema": {
              "$ref": "#/definitions/stackpathapiStatus"
            }
          },
          "500": {
            "description": "Internal server error.",
            "schema": {
              "$ref": "#/definitions/stackpathapiStatus"
            }
          },
          "default": {
            "description": "Default error structure.",
            "schema": {
              "$ref": "#/definitions/stackpathapiStatus"
            }
          }
        },
        "parameters": [
          {
            "name": "domain",
            "in": "path",
            "required": true,
            "type": "string"
          },
          {
            "name": "body",
            "in": "body",
            "required": true,
            "schema": {
              "$ref": "#/definitions/ScanDomainForRecordsRequestProviderConfig"
            }
          }
        ],
        "tags": [
          "Zone"
        ]
      }
    },
    "/dns/v1/stacks/{stack_id}/zones": {
      "get": {
        "operationId": "GetZones",
        "responses": {
          "200": {
            "description": "",
            "schema": {
              "$ref": "#/definitions/zoneGetZonesResponse"
            }
          },
          "401": {
            "description": "Returned when an unauthorized request is attempted.",
            "schema": {
              "$ref": "#/definitions/stackpathapiStatus"
            }
          },
          "500": {
            "description": "Internal server error.",
            "schema": {
              "$ref": "#/definitions/stackpathapiStatus"
            }
          },
          "default": {
            "description": "Default error structure.",
            "schema": {
              "$ref": "#/definitions/stackpathapiStatus"
            }
          }
        },
        "parameters": [
          {
            "name": "stack_id",
            "in": "path",
            "required": true,
            "type": "string"
          },
          {
            "name": "page_request.first",
            "description": "first is the number of items desired.",
            "in": "query",
            "required": false,
            "type": "string"
          },
          {
            "name": "page_request.after",
            "description": "after is the cursor value after which data will be returned.",
            "in": "query",
            "required": false,
            "type": "string"
          },
          {
            "name": "page_request.filter",
            "description": "filter will accept sql style constraints.",
            "in": "query",
            "required": false,
            "type": "string"
          },
          {
            "name": "page_request.sort_by",
            "description": "sort_by will sort the response by the given field.",
            "in": "query",
            "required": false,
            "type": "string"
          }
        ],
        "tags": [
          "Zone"
        ]
      },
      "post": {
        "operationId": "CreateZone",
        "responses": {
          "200": {
            "description": "",
            "schema": {
              "$ref": "#/definitions/zoneCreateZoneResponse"
            }
          },
          "401": {
            "description": "Returned when an unauthorized request is attempted.",
            "schema": {
              "$ref": "#/definitions/stackpathapiStatus"
            }
          },
          "500": {
            "description": "Internal server error.",
            "schema": {
              "$ref": "#/definitions/stackpathapiStatus"
            }
          },
          "default": {
            "description": "Default error structure.",
            "schema": {
              "$ref": "#/definitions/stackpathapiStatus"
            }
          }
        },
        "parameters": [
          {
            "name": "stack_id",
            "in": "path",
            "required": true,
            "type": "string"
          },
          {
            "name": "body",
            "in": "body",
            "required": true,
            "schema": {
              "$ref": "#/definitions/zoneCreateZoneMessage"
            }
          }
        ],
        "tags": [
          "Zone"
        ]
      }
    },
    "/dns/v1/stacks/{stack_id}/zones/{zone_id}": {
      "get": {
        "operationId": "GetZone",
        "responses": {
          "200": {
            "description": "",
            "schema": {
              "$ref": "#/definitions/zoneGetZoneResponse"
            }
          },
          "401": {
            "description": "Returned when an unauthorized request is attempted.",
            "schema": {
              "$ref": "#/definitions/stackpathapiStatus"
            }
          },
          "500": {
            "description": "Internal server error.",
            "schema": {
              "$ref": "#/definitions/stackpathapiStatus"
            }
          },
          "default": {
            "description": "Default error structure.",
            "schema": {
              "$ref": "#/definitions/stackpathapiStatus"
            }
          }
        },
        "parameters": [
          {
            "name": "stack_id",
            "in": "path",
            "required": true,
            "type": "string"
          },
          {
            "name": "zone_id",
            "in": "path",
            "required": true,
            "type": "string"
          }
        ],
        "tags": [
          "Zone"
        ]
      },
      "delete": {
        "operationId": "DeleteZone",
        "responses": {
          "204": {
            "description": "No content"
          },
          "401": {
            "description": "Returned when an unauthorized request is attempted.",
            "schema": {
              "$ref": "#/definitions/stackpathapiStatus"
            }
          },
          "500": {
            "description": "Internal server error.",
            "schema": {
              "$ref": "#/definitions/stackpathapiStatus"
            }
          },
          "default": {
            "description": "Default error structure.",
            "schema": {
              "$ref": "#/definitions/stackpathapiStatus"
            }
          }
        },
        "parameters": [
          {
            "name": "stack_id",
            "in": "path",
            "required": true,
            "type": "string"
          },
          {
            "name": "zone_id",
            "in": "path",
            "required": true,
            "type": "string"
          }
        ],
        "tags": [
          "Zone"
        ]
      },
      "put": {
        "operationId": "UpdateZone",
        "responses": {
          "200": {
            "description": "",
            "schema": {
              "$ref": "#/definitions/zoneUpdateZoneResponse"
            }
          },
          "401": {
            "description": "Returned when an unauthorized request is attempted.",
            "schema": {
              "$ref": "#/definitions/stackpathapiStatus"
            }
          },
          "500": {
            "description": "Internal server error.",
            "schema": {
              "$ref": "#/definitions/stackpathapiStatus"
            }
          },
          "default": {
            "description": "Default error structure.",
            "schema": {
              "$ref": "#/definitions/stackpathapiStatus"
            }
          }
        },
        "parameters": [
          {
            "name": "stack_id",
            "in": "path",
            "required": true,
            "type": "string"
          },
          {
            "name": "zone_id",
            "in": "path",
            "required": true,
            "type": "string"
          },
          {
            "name": "body",
            "in": "body",
            "required": true,
            "schema": {
              "$ref": "#/definitions/zoneUpdateZoneMessage"
            }
          }
        ],
        "tags": [
          "Zone"
        ]
      }
    },
    "/dns/v1/stacks/{stack_id}/zones/{zone_id}/bulk/records": {
      "post": {
        "operationId": "BulkCreateOrUpdateZoneRecords",
        "responses": {
          "200": {
            "description": "",
            "schema": {
              "$ref": "#/definitions/zoneBulkCreateOrUpdateZoneRecordsResponse"
            }
          },
          "401": {
            "description": "Returned when an unauthorized request is attempted.",
            "schema": {
              "$ref": "#/definitions/stackpathapiStatus"
            }
          },
          "500": {
            "description": "Internal server error.",
            "schema": {
              "$ref": "#/definitions/stackpathapiStatus"
            }
          },
          "default": {
            "description": "Default error structure.",
            "schema": {
              "$ref": "#/definitions/stackpathapiStatus"
            }
          }
        },
        "parameters": [
          {
            "name": "stack_id",
            "in": "path",
            "required": true,
            "type": "string"
          },
          {
            "name": "zone_id",
            "in": "path",
            "required": true,
            "type": "string"
          },
          {
            "name": "body",
            "in": "body",
            "required": true,
            "schema": {
              "$ref": "#/definitions/zoneBulkCreateOrUpdateZoneRecordsRequest"
            }
          }
        ],
        "tags": [
          "Zone"
        ]
      }
    },
    "/dns/v1/stacks/{stack_id}/zones/{zone_id}/bulk/records/delete": {
      "post": {
        "operationId": "BulkDeleteZoneRecords",
        "responses": {
          "204": {
            "description": "No content"
          },
          "401": {
            "description": "Returned when an unauthorized request is attempted.",
            "schema": {
              "$ref": "#/definitions/stackpathapiStatus"
            }
          },
          "500": {
            "description": "Internal server error.",
            "schema": {
              "$ref": "#/definitions/stackpathapiStatus"
            }
          },
          "default": {
            "description": "Default error structure.",
            "schema": {
              "$ref": "#/definitions/stackpathapiStatus"
            }
          }
        },
        "parameters": [
          {
            "name": "stack_id",
            "in": "path",
            "required": true,
            "type": "string"
          },
          {
            "name": "zone_id",
            "in": "path",
            "required": true,
            "type": "string"
          },
          {
            "name": "body",
            "in": "body",
            "required": true,
            "schema": {
              "$ref": "#/definitions/zoneBulkDeleteZoneRecordsMessage"
            }
          }
        ],
        "tags": [
          "Zone"
        ]
      }
    },
    "/dns/v1/stacks/{stack_id}/zones/{zone_id}/disable": {
      "post": {
        "operationId": "DisableZone",
        "responses": {
          "204": {
            "description": "No content"
          },
          "401": {
            "description": "Returned when an unauthorized request is attempted.",
            "schema": {
              "$ref": "#/definitions/stackpathapiStatus"
            }
          },
          "500": {
            "description": "Internal server error.",
            "schema": {
              "$ref": "#/definitions/stackpathapiStatus"
            }
          },
          "default": {
            "description": "Default error structure.",
            "schema": {
              "$ref": "#/definitions/stackpathapiStatus"
            }
          }
        },
        "parameters": [
          {
            "name": "stack_id",
            "in": "path",
            "required": true,
            "type": "string"
          },
          {
            "name": "zone_id",
            "in": "path",
            "required": true,
            "type": "string"
          }
        ],
        "tags": [
          "Zone"
        ]
      }
    },
    "/dns/v1/stacks/{stack_id}/zones/{zone_id}/discover_nameservers": {
      "get": {
        "operationId": "GetNameserversForZone",
        "responses": {
          "200": {
            "description": "",
            "schema": {
              "$ref": "#/definitions/zoneGetNameserversForZoneResponse"
            }
          },
          "401": {
            "description": "Returned when an unauthorized request is attempted.",
            "schema": {
              "$ref": "#/definitions/stackpathapiStatus"
            }
          },
          "500": {
            "description": "Internal server error.",
            "schema": {
              "$ref": "#/definitions/stackpathapiStatus"
            }
          },
          "default": {
            "description": "Default error structure.",
            "schema": {
              "$ref": "#/definitions/stackpathapiStatus"
            }
          }
        },
        "parameters": [
          {
            "name": "stack_id",
            "in": "path",
            "required": true,
            "type": "string"
          },
          {
            "name": "zone_id",
            "in": "path",
            "required": true,
            "type": "string"
          }
        ],
        "tags": [
          "Zone"
        ]
      }
    },
    "/dns/v1/stacks/{stack_id}/zones/{zone_id}/enable": {
      "post": {
        "operationId": "EnableZone",
        "responses": {
          "204": {
            "description": "No content"
          },
          "401": {
            "description": "Returned when an unauthorized request is attempted.",
            "schema": {
              "$ref": "#/definitions/stackpathapiStatus"
            }
          },
          "500": {
            "description": "Internal server error.",
            "schema": {
              "$ref": "#/definitions/stackpathapiStatus"
            }
          },
          "default": {
            "description": "Default error structure.",
            "schema": {
              "$ref": "#/definitions/stackpathapiStatus"
            }
          }
        },
        "parameters": [
          {
            "name": "stack_id",
            "in": "path",
            "required": true,
            "type": "string"
          },
          {
            "name": "zone_id",
            "in": "path",
            "required": true,
            "type": "string"
          }
        ],
        "tags": [
          "Zone"
        ]
      }
    },
    "/dns/v1/stacks/{stack_id}/zones/{zone_id}/records": {
      "get": {
        "operationId": "GetZoneRecords",
        "responses": {
          "200": {
            "description": "",
            "schema": {
              "$ref": "#/definitions/zoneGetZoneRecordsResponse"
            }
          },
          "401": {
            "description": "Returned when an unauthorized request is attempted.",
            "schema": {
              "$ref": "#/definitions/stackpathapiStatus"
            }
          },
          "500": {
            "description": "Internal server error.",
            "schema": {
              "$ref": "#/definitions/stackpathapiStatus"
            }
          },
          "default": {
            "description": "Default error structure.",
            "schema": {
              "$ref": "#/definitions/stackpathapiStatus"
            }
          }
        },
        "parameters": [
          {
            "name": "stack_id",
            "in": "path",
            "required": true,
            "type": "string"
          },
          {
            "name": "zone_id",
            "in": "path",
            "required": true,
            "type": "string"
          },
          {
            "name": "page_request.first",
            "description": "first is the number of items desired.",
            "in": "query",
            "required": false,
            "type": "string"
          },
          {
            "name": "page_request.after",
            "description": "after is the cursor value after which data will be returned.",
            "in": "query",
            "required": false,
            "type": "string"
          },
          {
            "name": "page_request.filter",
            "description": "filter will accept sql style constraints.",
            "in": "query",
            "required": false,
            "type": "string"
          },
          {
            "name": "page_request.sort_by",
            "description": "sort_by will sort the response by the given field.",
            "in": "query",
            "required": false,
            "type": "string"
          }
        ],
        "tags": [
          "Zone"
        ]
      },
      "post": {
        "operationId": "CreateZoneRecord",
        "responses": {
          "200": {
            "description": "",
            "schema": {
              "$ref": "#/definitions/zoneCreateZoneRecordResponse"
            }
          },
          "401": {
            "description": "Returned when an unauthorized request is attempted.",
            "schema": {
              "$ref": "#/definitions/stackpathapiStatus"
            }
          },
          "500": {
            "description": "Internal server error.",
            "schema": {
              "$ref": "#/definitions/stackpathapiStatus"
            }
          },
          "default": {
            "description": "Default error structure.",
            "schema": {
              "$ref": "#/definitions/stackpathapiStatus"
            }
          }
        },
        "parameters": [
          {
            "name": "stack_id",
            "in": "path",
            "required": true,
            "type": "string"
          },
          {
            "name": "zone_id",
            "in": "path",
            "required": true,
            "type": "string"
          },
          {
            "name": "body",
            "in": "body",
            "required": true,
            "schema": {
              "$ref": "#/definitions/zoneUpdateZoneRecordMessage"
            }
          }
        ],
        "tags": [
          "Zone"
        ]
      }
    },
    "/dns/v1/stacks/{stack_id}/zones/{zone_id}/records/{zone_record_id}": {
      "get": {
        "operationId": "GetZoneRecord",
        "responses": {
          "200": {
            "description": "",
            "schema": {
              "$ref": "#/definitions/zoneGetZoneRecordResponse"
            }
          },
          "401": {
            "description": "Returned when an unauthorized request is attempted.",
            "schema": {
              "$ref": "#/definitions/stackpathapiStatus"
            }
          },
          "500": {
            "description": "Internal server error.",
            "schema": {
              "$ref": "#/definitions/stackpathapiStatus"
            }
          },
          "default": {
            "description": "Default error structure.",
            "schema": {
              "$ref": "#/definitions/stackpathapiStatus"
            }
          }
        },
        "parameters": [
          {
            "name": "stack_id",
            "in": "path",
            "required": true,
            "type": "string"
          },
          {
            "name": "zone_id",
            "in": "path",
            "required": true,
            "type": "string"
          },
          {
            "name": "zone_record_id",
            "in": "path",
            "required": true,
            "type": "string"
          }
        ],
        "tags": [
          "Zone"
        ]
      },
      "delete": {
        "operationId": "DeleteZoneRecord",
        "responses": {
          "204": {
            "description": "No content"
          },
          "401": {
            "description": "Returned when an unauthorized request is attempted.",
            "schema": {
              "$ref": "#/definitions/stackpathapiStatus"
            }
          },
          "500": {
            "description": "Internal server error.",
            "schema": {
              "$ref": "#/definitions/stackpathapiStatus"
            }
          },
          "default": {
            "description": "Default error structure.",
            "schema": {
              "$ref": "#/definitions/stackpathapiStatus"
            }
          }
        },
        "parameters": [
          {
            "name": "stack_id",
            "in": "path",
            "required": true,
            "type": "string"
          },
          {
            "name": "zone_id",
            "in": "path",
            "required": true,
            "type": "string"
          },
          {
            "name": "zone_record_id",
            "in": "path",
            "required": true,
            "type": "string"
          }
        ],
        "tags": [
          "Zone"
        ]
      },
      "put": {
        "operationId": "UpdateZoneRecord",
        "responses": {
          "200": {
            "description": "",
            "schema": {
              "$ref": "#/definitions/zoneUpdateZoneRecordResponse"
            }
          },
          "401": {
            "description": "Returned when an unauthorized request is attempted.",
            "schema": {
              "$ref": "#/definitions/stackpathapiStatus"
            }
          },
          "500": {
            "description": "Internal server error.",
            "schema": {
              "$ref": "#/definitions/stackpathapiStatus"
            }
          },
          "default": {
            "description": "Default error structure.",
            "schema": {
              "$ref": "#/definitions/stackpathapiStatus"
            }
          }
        },
        "parameters": [
          {
            "name": "stack_id",
            "in": "path",
            "required": true,
            "type": "string"
          },
          {
            "name": "zone_id",
            "in": "path",
            "required": true,
            "type": "string"
          },
          {
            "name": "zone_record_id",
            "in": "path",
            "required": true,
            "type": "string"
          },
          {
            "name": "body",
            "in": "body",
            "required": true,
            "schema": {
              "$ref": "#/definitions/zoneUpdateZoneRecordMessage"
            }
          }
        ],
        "tags": [
          "Zone"
        ]
      },
      "patch": {
        "operationId": "PatchZoneRecord",
        "responses": {
          "200": {
            "description": "",
            "schema": {
              "$ref": "#/definitions/zoneUpdateZoneRecordResponse"
            }
          },
          "401": {
            "description": "Returned when an unauthorized request is attempted.",
            "schema": {
              "$ref": "#/definitions/stackpathapiStatus"
            }
          },
          "500": {
            "description": "Internal server error.",
            "schema": {
              "$ref": "#/definitions/stackpathapiStatus"
            }
          },
          "default": {
            "description": "Default error structure.",
            "schema": {
              "$ref": "#/definitions/stackpathapiStatus"
            }
          }
        },
        "parameters": [
          {
            "name": "stack_id",
            "in": "path",
            "required": true,
            "type": "string"
          },
          {
            "name": "zone_id",
            "in": "path",
            "required": true,
            "type": "string"
          },
          {
            "name": "zone_record_id",
            "in": "path",
            "required": true,
            "type": "string"
          },
          {
            "name": "body",
            "in": "body",
            "required": true,
            "schema": {
              "$ref": "#/definitions/zonePatchZoneRecordMessage"
            }
          }
        ],
        "tags": [
          "Zone"
        ]
      }
    },
    "/dns/v1/stacks/{stack_id}/zones/{zone_id}/repush": {
      "post": {
        "operationId": "PushFullZone",
        "responses": {
          "204": {
            "description": "No content"
          },
          "401": {
            "description": "Returned when an unauthorized request is attempted.",
            "schema": {
              "$ref": "#/definitions/stackpathapiStatus"
            }
          },
          "500": {
            "description": "Internal server error.",
            "schema": {
              "$ref": "#/definitions/stackpathapiStatus"
            }
          },
          "default": {
            "description": "Default error structure.",
            "schema": {
              "$ref": "#/definitions/stackpathapiStatus"
            }
          }
        },
        "parameters": [
          {
            "name": "stack_id",
            "in": "path",
            "required": true,
            "type": "string"
          },
          {
            "name": "zone_id",
            "in": "path",
            "required": true,
            "type": "string"
          }
        ],
        "tags": [
          "Zone"
        ]
      }
    }
  },
  "definitions": {
    "ScanDomainForRecordsRequestProviderConfig": {
      "type": "object",
      "properties": {
        "dnsProvider": {
          "$ref": "#/definitions/zoneDnsProvider"
        },
        "authenticationUser": {
          "type": "string"
        },
        "apiKey": {
          "type": "string"
        }
      }
    },
    "apiStatusDetail": {
      "type": "object",
      "properties": {
        "@type": {
          "type": "string"
        }
      },
      "required": [
        "@type"
      ],
      "discriminator": "@type"
    },
    "paginationPageInfo": {
      "type": "object",
      "properties": {
        "totalCount": {
          "type": "string",
          "title": "total_count is the total number of items in the dataset"
        },
        "hasPreviousPage": {
          "type": "boolean",
          "format": "boolean",
          "title": "has_previous_page will be true when a previous page of data exists"
        },
        "hasNextPage": {
          "type": "boolean",
          "format": "boolean",
          "title": "has_next_page will be true when another page of data is available"
        },
        "startCursor": {
          "type": "string",
          "title": "start_cursor will be the cursor for the first item in the set of data returned"
        },
        "endCursor": {
          "type": "string",
          "title": "end_cursor will be the cursor for the last item in the set of data returned"
        }
      },
      "description": "PageInfo provides information about a paginated response.\nThis is modeleted after the GraphQL Relay spec to support both cursor\nbased pagination and traditional offset based pagination."
    },
    "paginationPageRequest": {
      "type": "object",
      "properties": {
        "first": {
          "type": "string",
          "title": "first is the number of items desired"
        },
        "after": {
          "type": "string",
          "title": "after is the cursor value after which data will be returned"
        },
        "filter": {
          "type": "string",
          "title": "filter will accept sql style constraints"
        },
        "sortBy": {
          "type": "string",
          "title": "sort_by will sort the response by the given field"
        }
      },
      "description": "PageRequest is provided to a call which accepts paginated requests.\nThis is modeled after the GraphQL Relay spec to support both cursor\nbased pagination and traditional offset based pagination."
    },
    "stackpath.rpc.BadRequest": {
      "allOf": [
        {
          "$ref": "#/definitions/apiStatusDetail"
        },
        {
          "type": "object",
          "properties": {
            "fieldViolations": {
              "type": "array",
              "items": {
                "$ref": "#/definitions/stackpath.rpc.BadRequest.FieldViolation"
              }
            }
          }
        }
      ]
    },
    "stackpath.rpc.BadRequest.FieldViolation": {
      "type": "object",
      "properties": {
        "field": {
          "type": "string"
        },
        "description": {
          "type": "string"
        }
      }
    },
    "stackpath.rpc.Help": {
      "allOf": [
        {
          "$ref": "#/definitions/apiStatusDetail"
        },
        {
          "type": "object",
          "properties": {
            "links": {
              "type": "array",
              "items": {
                "$ref": "#/definitions/stackpath.rpc.Help.Link"
              }
            }
          }
        }
      ]
    },
    "stackpath.rpc.Help.Link": {
      "type": "object",
      "properties": {
        "description": {
          "type": "string"
        },
        "url": {
          "type": "string"
        }
      }
    },
    "stackpath.rpc.LocalizedMessage": {
      "allOf": [
        {
          "$ref": "#/definitions/apiStatusDetail"
        },
        {
          "type": "object",
          "properties": {
            "locale": {
              "type": "string"
            },
            "message": {
              "type": "string"
            }
          }
        }
      ]
    },
    "stackpath.rpc.PreconditionFailure": {
      "allOf": [
        {
          "$ref": "#/definitions/apiStatusDetail"
        },
        {
          "type": "object",
          "properties": {
            "violations": {
              "type": "array",
              "items": {
                "$ref": "#/definitions/stackpath.rpc.PreconditionFailure.Violation"
              }
            }
          }
        }
      ]
    },
    "stackpath.rpc.PreconditionFailure.Violation": {
      "type": "object",
      "properties": {
        "type": {
          "type": "string"
        },
        "subject": {
          "type": "string"
        },
        "description": {
          "type": "string"
        }
      }
    },
    "stackpath.rpc.QuotaFailure": {
      "allOf": [
        {
          "$ref": "#/definitions/apiStatusDetail"
        },
        {
          "type": "object",
          "properties": {
            "violations": {
              "type": "array",
              "items": {
                "$ref": "#/definitions/stackpath.rpc.QuotaFailure.Violation"
              }
            }
          }
        }
      ]
    },
    "stackpath.rpc.QuotaFailure.Violation": {
      "type": "object",
      "properties": {
        "subject": {
          "type": "string"
        },
        "description": {
          "type": "string"
        }
      }
    },
    "stackpath.rpc.RequestInfo": {
      "allOf": [
        {
          "$ref": "#/definitions/apiStatusDetail"
        },
        {
          "type": "object",
          "properties": {
            "requestId": {
              "type": "string"
            },
            "servingData": {
              "type": "string"
            }
          }
        }
      ]
    },
    "stackpath.rpc.ResourceInfo": {
      "allOf": [
        {
          "$ref": "#/definitions/apiStatusDetail"
        },
        {
          "type": "object",
          "properties": {
            "resourceType": {
              "type": "string"
            },
            "resourceName": {
              "type": "string"
            },
            "owner": {
              "type": "string"
            },
            "description": {
              "type": "string"
            }
          }
        }
      ]
    },
    "stackpath.rpc.RetryInfo": {
      "allOf": [
        {
          "$ref": "#/definitions/apiStatusDetail"
        },
        {
          "type": "object",
          "properties": {
            "retryDelay": {
              "type": "string"
            }
          }
        }
      ]
    },
    "stackpathapiStatus": {
      "type": "object",
      "properties": {
        "code": {
          "type": "integer",
          "format": "int32"
        },
        "error": {
          "type": "string"
        },
        "details": {
          "type": "array",
          "items": {
            "$ref": "#/definitions/apiStatusDetail"
          }
        }
      }
    },
    "zoneBulkCreateOrUpdateZoneRecordMessage": {
      "type": "object",
      "properties": {
        "zoneId": {
          "type": "string"
        },
        "name": {
          "type": "string"
        },
        "type": {
          "$ref": "#/definitions/zoneRecordType"
        },
        "ttl": {
          "type": "integer",
          "format": "int32"
        },
        "data": {
          "type": "string"
        },
        "weight": {
          "type": "integer",
          "format": "int32"
        },
        "labels": {
          "type": "object",
          "additionalProperties": {
            "type": "string"
          }
        }
      }
    },
    "zoneBulkCreateOrUpdateZoneRecordsRequest": {
      "type": "object",
      "properties": {
        "records": {
          "type": "array",
          "items": {
            "$ref": "#/definitions/zoneBulkCreateOrUpdateZoneRecordMessage"
          }
        }
      }
    },
    "zoneBulkCreateOrUpdateZoneRecordsResponse": {
      "type": "object",
      "properties": {
        "zoneRecordIds": {
          "type": "array",
          "items": {
            "type": "string"
          }
        }
      }
    },
    "zoneBulkDeleteZoneRecordsMessage": {
      "type": "object",
      "properties": {
        "zoneRecordIds": {
          "type": "array",
          "items": {
            "type": "string"
          }
        }
      }
    },
    "zoneCreateZoneMessage": {
      "type": "object",
      "properties": {
        "stackId": {
          "type": "string"
        },
        "accountId": {
          "type": "string"
        },
        "domain": {
          "type": "string"
        },
        "labels": {
          "type": "object",
          "additionalProperties": {
            "type": "string"
          }
        },
        "useApexDomain": {
          "type": "boolean",
          "format": "boolean",
          "description": "If a domain with subdomains is provided, it will be striped and only the root domain will be used for the zone.\nIf this is false an error will be returned if it's not already an apex domain."
        }
      }
    },
    "zoneCreateZoneRecordResponse": {
      "type": "object",
      "properties": {
        "record": {
          "$ref": "#/definitions/zoneZoneRecord"
        }
      }
    },
    "zoneCreateZoneResponse": {
      "type": "object",
      "properties": {
        "zone": {
          "$ref": "#/definitions/zoneZone"
        }
      }
    },
    "zoneDnsProvider": {
      "type": "string",
      "enum": [
        "GENERAL",
        "CLOUDFLARE"
      ],
      "default": "GENERAL"
    },
    "zoneGetDiscoveryProviderDetailsResponse": {
      "type": "object",
      "properties": {
        "dnsProvider": {
          "$ref": "#/definitions/zoneDnsProvider"
        },
        "requiresAuthentication": {
          "type": "boolean",
          "format": "boolean"
        },
        "nameservers": {
          "type": "array",
          "items": {
            "type": "string"
          }
        }
      }
    },
    "zoneGetNameserversForZoneResponse": {
      "type": "object",
      "properties": {
        "configured": {
          "type": "boolean",
          "format": "boolean"
        },
        "currentNameservers": {
          "type": "array",
          "items": {
            "type": "string"
          }
        },
        "requiredNameservers": {
          "type": "array",
          "items": {
            "type": "string"
          }
        }
      }
    },
    "zoneGetZoneRecordResponse": {
      "type": "object",
      "properties": {
        "record": {
          "$ref": "#/definitions/zoneZoneRecord"
        }
      }
    },
    "zoneGetZoneRecordsResponse": {
      "type": "object",
      "properties": {
        "pageInfo": {
          "$ref": "#/definitions/paginationPageInfo"
        },
        "records": {
          "type": "array",
          "items": {
            "$ref": "#/definitions/zoneZoneRecord"
          }
        }
      }
    },
    "zoneGetZoneResponse": {
      "type": "object",
      "properties": {
        "zone": {
          "$ref": "#/definitions/zoneZone"
        }
      }
    },
    "zoneGetZonesResponse": {
      "type": "object",
      "properties": {
        "pageInfo": {
          "$ref": "#/definitions/paginationPageInfo"
        },
        "zones": {
          "type": "array",
          "items": {
            "$ref": "#/definitions/zoneZone"
          }
        }
      }
    },
    "zoneImportZoneRecord": {
      "type": "object",
      "properties": {
        "name": {
          "type": "string"
        },
        "type": {
          "$ref": "#/definitions/zoneRecordType"
        },
        "ttl": {
          "type": "integer",
          "format": "int32"
        },
        "data": {
          "type": "string"
        },
        "weight": {
          "type": "integer",
          "format": "int32"
        }
      }
    },
    "zonePatchZoneRecordMessage": {
      "type": "object",
      "properties": {
        "name": {
          "type": "string"
        },
        "type": {
          "$ref": "#/definitions/zoneRecordType"
        },
        "ttl": {
          "type": "integer",
          "format": "int32"
        },
        "data": {
          "type": "string"
        },
        "weight": {
          "type": "integer",
          "format": "int32"
        }
      }
    },
    "zoneRecordType": {
      "type": "string",
      "enum": [
        "EMPTY",
        "A",
        "AAAA",
        "CNAME",
        "TXT",
        "MX",
        "SRV",
        "NS"
      ],
      "default": "EMPTY"
    },
    "zoneScanDomainForRecordsResponse": {
      "type": "object",
      "properties": {
        "records": {
          "type": "array",
          "items": {
            "$ref": "#/definitions/zoneImportZoneRecord"
          }
        }
      }
    },
    "zoneUpdateZoneMessage": {
      "type": "object",
      "properties": {
        "labels": {
          "type": "object",
          "additionalProperties": {
            "type": "string"
          }
        }
      }
    },
    "zoneUpdateZoneRecordMessage": {
      "type": "object",
      "properties": {
        "name": {
          "type": "string"
        },
        "type": {
          "$ref": "#/definitions/zoneRecordType"
        },
        "ttl": {
          "type": "integer",
          "format": "int32"
        },
        "data": {
          "type": "string"
        },
        "weight": {
          "type": "integer",
          "format": "int32"
        },
        "labels": {
          "type": "object",
          "additionalProperties": {
            "type": "string"
          }
        }
      }
    },
    "zoneUpdateZoneRecordResponse": {
      "type": "object",
      "properties": {
        "record": {
          "$ref": "#/definitions/zoneZoneRecord"
        }
      }
    },
    "zoneUpdateZoneResponse": {
      "type": "object",
      "properties": {
        "zone": {
          "$ref": "#/definitions/zoneZone"
        }
      }
    },
    "zoneZone": {
      "type": "object",
      "properties": {
        "stackId": {
          "type": "string"
        },
        "accountId": {
          "type": "string"
        },
        "id": {
          "type": "string"
        },
        "domain": {
          "type": "string"
        },
        "version": {
          "type": "string"
        },
        "labels": {
          "type": "object",
          "additionalProperties": {
            "type": "string"
          }
        },
        "created": {
          "type": "string",
          "format": "date-time"
        },
        "updated": {
          "type": "string",
          "format": "date-time"
        },
        "nameservers": {
          "type": "array",
          "items": {
            "type": "string"
          }
        },
        "verified": {
          "type": "string",
          "format": "date-time"
        },
        "status": {
          "$ref": "#/definitions/zoneZoneStatus"
        },
        "disabled": {
          "type": "boolean",
          "format": "boolean"
        }
      }
    },
    "zoneZoneRecord": {
      "type": "object",
      "properties": {
        "id": {
          "type": "string"
        },
        "zoneId": {
          "type": "string"
        },
        "name": {
          "type": "string"
        },
        "type": {
          "type": "string"
        },
        "class": {
          "type": "string"
        },
        "ttl": {
          "type": "integer",
          "format": "int32"
        },
        "data": {
          "type": "string"
        },
        "weight": {
          "type": "integer",
          "format": "int32"
        },
        "labels": {
          "type": "object",
          "additionalProperties": {
            "type": "string"
          }
        },
        "created": {
          "type": "string",
          "format": "date-time"
        },
        "updated": {
          "type": "string",
          "format": "date-time"
        }
      }
    },
    "zoneZoneStatus": {
      "type": "string",
      "enum": [
        "ACTIVE",
        "SUSPENDED",
        "BILLING_SUSPENDED",
        "INACTIVE"
      ],
      "default": "ACTIVE"
    }
  },
  "securityDefinitions": {
    "OAuth2": {
      "type": "oauth2",
      "flow": "application",
      "tokenUrl": "https://gateway.stackpath.com/identity/v1/oauth2/token"
    }
  },
  "security": [
    {
      "OAuth2": []
    }
  ]
}
