module github.com/stackpath/golang_stackpath

require (
	github.com/PuerkitoBio/purell v1.1.0
	github.com/PuerkitoBio/urlesc v0.0.0-20170810143723-de5bf2ad4578
	github.com/asaskevich/govalidator v0.0.0-20180315120708-ccb8e960c48f
	github.com/fsnotify/fsnotify v1.4.7
	github.com/go-openapi/analysis v0.0.0-20180520152044-5957818e1003
	github.com/go-openapi/errors v0.0.0-20180515155515-b2b2befaf267
	github.com/go-openapi/inflect v0.0.0-20130829110746-b1f6470ffb9c
	github.com/go-openapi/jsonpointer v0.0.0-20180322222829-3a0015ad55fa
	github.com/go-openapi/jsonreference v0.0.0-20180322222742-3fb327e6747d
	github.com/go-openapi/loads v0.0.0-20171207192234-2a2b323bab96
	github.com/go-openapi/runtime v0.0.0-20180509184547-c0cae94704c7
	github.com/go-openapi/spec v0.0.0-20180415031709-bcff419492ee
	github.com/go-openapi/strfmt v0.0.0-20180407011102-481808443b00
	github.com/go-openapi/swag v0.0.0-20180405201759-811b1089cde9
	github.com/go-openapi/validate v0.0.0-20180502213133-9286f6d0e5c1
	github.com/go-swagger/go-swagger v0.0.0-20180526042912-25e637c5028d
	github.com/gorilla/handlers v1.3.0
	github.com/hashicorp/hcl v0.0.0-20180404174102-ef8a98b0bbce
	github.com/jessevdk/go-flags v1.4.0
	github.com/kr/pretty v0.1.0
	github.com/kr/text v0.1.0
	github.com/magiconair/properties v1.8.0
	github.com/mailru/easyjson v0.0.0-20180531095741-9825584555aa
	github.com/mitchellh/mapstructure v0.0.0-20180511142126-bb74f1db0675
	github.com/pelletier/go-toml v1.1.0
	github.com/spf13/afero v1.1.0
	github.com/spf13/cast v1.2.0
	github.com/spf13/jwalterweatherman v0.0.0-20180109140146-7c0cea34c8ec
	github.com/spf13/pflag v1.0.1
	github.com/spf13/viper v0.0.0-20180507071007-15738813a09d
	github.com/toqueteos/webbrowser v1.1.0
	github.com/tylerb/graceful v1.2.15
	github.com/vektra/mockery v0.0.0-20180815001236-ea265755d541
	golang.org/x/net v0.0.0-20180530234432-1e491301e022
	golang.org/x/sys v0.0.0-20180525142821-c11f84a56e43
	golang.org/x/text v0.3.0
	golang.org/x/tools v0.0.0-20180525024113-a5b4c53f6e8b
	gopkg.in/mgo.v2 v2.0.0-20160818020120-3f83fa500528
	gopkg.in/yaml.v2 v2.2.1
)
