{
  "swagger": "2.0",
  "info": {
    "title": "Monitoring API",
    "version": "1.0",
    "contact": {
      "name": "StackPath Support",
      "url": "https://support.stackpath.com/"
    }
  },
  "host": "gateway.stackpath.com",
  "schemes": [
    "https"
  ],
  "consumes": [
    "application/json"
  ],
  "produces": [
    "application/json"
  ],
  "paths": {
    "/monitoring/v1/stacks/{stack_id}/disable": {
      "post": {
        "operationId": "Disable",
        "responses": {
          "204": {
            "description": "No content"
          },
          "401": {
            "description": "Returned when an unauthorized request is attempted.",
            "schema": {
              "$ref": "#/definitions/apiStatus"
            }
          },
          "500": {
            "description": "Internal server error.",
            "schema": {
              "$ref": "#/definitions/apiStatus"
            }
          },
          "default": {
            "description": "Default error structure.",
            "schema": {
              "$ref": "#/definitions/apiStatus"
            }
          }
        },
        "parameters": [
          {
            "name": "stack_id",
            "in": "path",
            "required": true,
            "type": "string"
          }
        ],
        "tags": [
          "Monitoring"
        ]
      }
    },
    "/monitoring/v1/stacks/{stack_id}/enable": {
      "post": {
        "operationId": "Enable",
        "responses": {
          "204": {
            "description": "No content"
          },
          "401": {
            "description": "Returned when an unauthorized request is attempted.",
            "schema": {
              "$ref": "#/definitions/apiStatus"
            }
          },
          "500": {
            "description": "Internal server error.",
            "schema": {
              "$ref": "#/definitions/apiStatus"
            }
          },
          "default": {
            "description": "Default error structure.",
            "schema": {
              "$ref": "#/definitions/apiStatus"
            }
          }
        },
        "parameters": [
          {
            "name": "stack_id",
            "in": "path",
            "required": true,
            "type": "string"
          }
        ],
        "tags": [
          "Monitoring"
        ]
      }
    },
    "/monitoring/v1/stacks/{stack_id}/http_monitors": {
      "get": {
        "operationId": "GetHttpMonitors",
        "responses": {
          "200": {
            "description": "",
            "schema": {
              "$ref": "#/definitions/monitoringGetHttpMonitorsResponse"
            }
          },
          "401": {
            "description": "Returned when an unauthorized request is attempted.",
            "schema": {
              "$ref": "#/definitions/apiStatus"
            }
          },
          "500": {
            "description": "Internal server error.",
            "schema": {
              "$ref": "#/definitions/apiStatus"
            }
          },
          "default": {
            "description": "Default error structure.",
            "schema": {
              "$ref": "#/definitions/apiStatus"
            }
          }
        },
        "parameters": [
          {
            "name": "stack_id",
            "in": "path",
            "required": true,
            "type": "string"
          },
          {
            "name": "page_request.first",
            "description": "first is the number of items desired.",
            "in": "query",
            "required": false,
            "type": "string"
          },
          {
            "name": "page_request.after",
            "description": "after is the cursor value after which data will be returned.",
            "in": "query",
            "required": false,
            "type": "string"
          },
          {
            "name": "page_request.filter",
            "description": "filter will accept sql style constraints.",
            "in": "query",
            "required": false,
            "type": "string"
          },
          {
            "name": "page_request.sort_by",
            "description": "sort_by will sort the response by the given field.",
            "in": "query",
            "required": false,
            "type": "string"
          }
        ],
        "tags": [
          "Monitoring"
        ]
      },
      "post": {
        "operationId": "CreateHttpMonitor",
        "responses": {
          "200": {
            "description": "",
            "schema": {
              "$ref": "#/definitions/monitoringHttpMonitor"
            }
          },
          "401": {
            "description": "Returned when an unauthorized request is attempted.",
            "schema": {
              "$ref": "#/definitions/apiStatus"
            }
          },
          "500": {
            "description": "Internal server error.",
            "schema": {
              "$ref": "#/definitions/apiStatus"
            }
          },
          "default": {
            "description": "Default error structure.",
            "schema": {
              "$ref": "#/definitions/apiStatus"
            }
          }
        },
        "parameters": [
          {
            "name": "stack_id",
            "in": "path",
            "required": true,
            "type": "string"
          },
          {
            "name": "body",
            "in": "body",
            "required": true,
            "schema": {
              "$ref": "#/definitions/monitoringCreateHttpMonitorRequest"
            }
          }
        ],
        "tags": [
          "Monitoring"
        ]
      }
    },
    "/monitoring/v1/stacks/{stack_id}/http_monitors/bulk_delete": {
      "post": {
        "operationId": "BulkDeleteHttpMonitors",
        "responses": {
          "200": {
            "description": "",
            "schema": {
              "$ref": "#/definitions/monitoringBulkDeleteHttpMonitorsResponse"
            }
          },
          "401": {
            "description": "Returned when an unauthorized request is attempted.",
            "schema": {
              "$ref": "#/definitions/apiStatus"
            }
          },
          "500": {
            "description": "Internal server error.",
            "schema": {
              "$ref": "#/definitions/apiStatus"
            }
          },
          "default": {
            "description": "Default error structure.",
            "schema": {
              "$ref": "#/definitions/apiStatus"
            }
          }
        },
        "parameters": [
          {
            "name": "stack_id",
            "in": "path",
            "required": true,
            "type": "string"
          },
          {
            "name": "body",
            "in": "body",
            "required": true,
            "schema": {
              "$ref": "#/definitions/monitoringBulkDeleteHttpMonitorsRequest"
            }
          }
        ],
        "tags": [
          "Monitoring"
        ]
      }
    },
    "/monitoring/v1/stacks/{stack_id}/http_monitors/{monitor_id}": {
      "get": {
        "operationId": "GetHttpMonitor",
        "responses": {
          "200": {
            "description": "",
            "schema": {
              "$ref": "#/definitions/monitoringGetHttpMonitorResponse"
            }
          },
          "401": {
            "description": "Returned when an unauthorized request is attempted.",
            "schema": {
              "$ref": "#/definitions/apiStatus"
            }
          },
          "500": {
            "description": "Internal server error.",
            "schema": {
              "$ref": "#/definitions/apiStatus"
            }
          },
          "default": {
            "description": "Default error structure.",
            "schema": {
              "$ref": "#/definitions/apiStatus"
            }
          }
        },
        "parameters": [
          {
            "name": "stack_id",
            "in": "path",
            "required": true,
            "type": "string"
          },
          {
            "name": "monitor_id",
            "in": "path",
            "required": true,
            "type": "string"
          }
        ],
        "tags": [
          "Monitoring"
        ]
      },
      "delete": {
        "operationId": "DeleteHttpMonitor",
        "responses": {
          "200": {
            "description": "",
            "schema": {
              "$ref": "#/definitions/monitoringDeleteHttpMonitorResponse"
            }
          },
          "401": {
            "description": "Returned when an unauthorized request is attempted.",
            "schema": {
              "$ref": "#/definitions/apiStatus"
            }
          },
          "500": {
            "description": "Internal server error.",
            "schema": {
              "$ref": "#/definitions/apiStatus"
            }
          },
          "default": {
            "description": "Default error structure.",
            "schema": {
              "$ref": "#/definitions/apiStatus"
            }
          }
        },
        "parameters": [
          {
            "name": "stack_id",
            "in": "path",
            "required": true,
            "type": "string"
          },
          {
            "name": "monitor_id",
            "in": "path",
            "required": true,
            "type": "string"
          }
        ],
        "tags": [
          "Monitoring"
        ]
      },
      "patch": {
        "operationId": "UpdateHttpMonitor",
        "responses": {
          "200": {
            "description": "",
            "schema": {
              "$ref": "#/definitions/monitoringHttpMonitor"
            }
          },
          "401": {
            "description": "Returned when an unauthorized request is attempted.",
            "schema": {
              "$ref": "#/definitions/apiStatus"
            }
          },
          "500": {
            "description": "Internal server error.",
            "schema": {
              "$ref": "#/definitions/apiStatus"
            }
          },
          "default": {
            "description": "Default error structure.",
            "schema": {
              "$ref": "#/definitions/apiStatus"
            }
          }
        },
        "parameters": [
          {
            "name": "stack_id",
            "in": "path",
            "required": true,
            "type": "string"
          },
          {
            "name": "monitor_id",
            "in": "path",
            "required": true,
            "type": "string"
          },
          {
            "name": "body",
            "in": "body",
            "required": true,
            "schema": {
              "$ref": "#/definitions/monitoringPatchHttpMonitorMessage"
            }
          }
        ],
        "tags": [
          "Monitoring"
        ]
      }
    },
    "/monitoring/v1/stacks/{stack_id}/http_monitors/{monitor_id}/checks": {
      "get": {
        "operationId": "GetChecks",
        "responses": {
          "200": {
            "description": "",
            "schema": {
              "$ref": "#/definitions/monitoringGetChecksResponse"
            }
          },
          "401": {
            "description": "Returned when an unauthorized request is attempted.",
            "schema": {
              "$ref": "#/definitions/apiStatus"
            }
          },
          "500": {
            "description": "Internal server error.",
            "schema": {
              "$ref": "#/definitions/apiStatus"
            }
          },
          "default": {
            "description": "Default error structure.",
            "schema": {
              "$ref": "#/definitions/apiStatus"
            }
          }
        },
        "parameters": [
          {
            "name": "stack_id",
            "in": "path",
            "required": true,
            "type": "string"
          },
          {
            "name": "monitor_id",
            "in": "path",
            "required": true,
            "type": "string"
          },
          {
            "name": "page_request.first",
            "description": "first is the number of items desired.",
            "in": "query",
            "required": false,
            "type": "string"
          },
          {
            "name": "page_request.after",
            "description": "after is the cursor value after which data will be returned.",
            "in": "query",
            "required": false,
            "type": "string"
          },
          {
            "name": "page_request.filter",
            "description": "filter will accept sql style constraints.",
            "in": "query",
            "required": false,
            "type": "string"
          },
          {
            "name": "page_request.sort_by",
            "description": "sort_by will sort the response by the given field.",
            "in": "query",
            "required": false,
            "type": "string"
          }
        ],
        "tags": [
          "Monitoring"
        ]
      },
      "post": {
        "operationId": "CreateCheck",
        "responses": {
          "200": {
            "description": "",
            "schema": {
              "$ref": "#/definitions/monitoringCheck"
            }
          },
          "401": {
            "description": "Returned when an unauthorized request is attempted.",
            "schema": {
              "$ref": "#/definitions/apiStatus"
            }
          },
          "500": {
            "description": "Internal server error.",
            "schema": {
              "$ref": "#/definitions/apiStatus"
            }
          },
          "default": {
            "description": "Default error structure.",
            "schema": {
              "$ref": "#/definitions/apiStatus"
            }
          }
        },
        "parameters": [
          {
            "name": "stack_id",
            "in": "path",
            "required": true,
            "type": "string"
          },
          {
            "name": "monitor_id",
            "in": "path",
            "required": true,
            "type": "string"
          },
          {
            "name": "body",
            "in": "body",
            "required": true,
            "schema": {
              "$ref": "#/definitions/monitoringCreateCheckRequest"
            }
          }
        ],
        "tags": [
          "Monitoring"
        ]
      }
    },
    "/monitoring/v1/stacks/{stack_id}/http_monitors/{monitor_id}/checks/bulk_delete": {
      "post": {
        "operationId": "BulkDeleteChecks",
        "responses": {
          "200": {
            "description": "",
            "schema": {
              "$ref": "#/definitions/monitoringBulkDeleteChecksResponse"
            }
          },
          "401": {
            "description": "Returned when an unauthorized request is attempted.",
            "schema": {
              "$ref": "#/definitions/apiStatus"
            }
          },
          "500": {
            "description": "Internal server error.",
            "schema": {
              "$ref": "#/definitions/apiStatus"
            }
          },
          "default": {
            "description": "Default error structure.",
            "schema": {
              "$ref": "#/definitions/apiStatus"
            }
          }
        },
        "parameters": [
          {
            "name": "stack_id",
            "in": "path",
            "required": true,
            "type": "string"
          },
          {
            "name": "monitor_id",
            "in": "path",
            "required": true,
            "type": "string"
          },
          {
            "name": "body",
            "in": "body",
            "required": true,
            "schema": {
              "$ref": "#/definitions/monitoringBulkDeleteChecksRequest"
            }
          }
        ],
        "tags": [
          "Monitoring"
        ]
      }
    },
    "/monitoring/v1/stacks/{stack_id}/http_monitors/{monitor_id}/checks/{check_id}": {
      "get": {
        "operationId": "GetCheck",
        "responses": {
          "200": {
            "description": "",
            "schema": {
              "$ref": "#/definitions/monitoringGetCheckResponse"
            }
          },
          "401": {
            "description": "Returned when an unauthorized request is attempted.",
            "schema": {
              "$ref": "#/definitions/apiStatus"
            }
          },
          "500": {
            "description": "Internal server error.",
            "schema": {
              "$ref": "#/definitions/apiStatus"
            }
          },
          "default": {
            "description": "Default error structure.",
            "schema": {
              "$ref": "#/definitions/apiStatus"
            }
          }
        },
        "parameters": [
          {
            "name": "stack_id",
            "in": "path",
            "required": true,
            "type": "string"
          },
          {
            "name": "monitor_id",
            "in": "path",
            "required": true,
            "type": "string"
          },
          {
            "name": "check_id",
            "in": "path",
            "required": true,
            "type": "string"
          }
        ],
        "tags": [
          "Monitoring"
        ]
      },
      "delete": {
        "operationId": "DeleteCheck",
        "responses": {
          "200": {
            "description": "",
            "schema": {
              "$ref": "#/definitions/monitoringDeleteCheckResponse"
            }
          },
          "401": {
            "description": "Returned when an unauthorized request is attempted.",
            "schema": {
              "$ref": "#/definitions/apiStatus"
            }
          },
          "500": {
            "description": "Internal server error.",
            "schema": {
              "$ref": "#/definitions/apiStatus"
            }
          },
          "default": {
            "description": "Default error structure.",
            "schema": {
              "$ref": "#/definitions/apiStatus"
            }
          }
        },
        "parameters": [
          {
            "name": "stack_id",
            "in": "path",
            "required": true,
            "type": "string"
          },
          {
            "name": "monitor_id",
            "in": "path",
            "required": true,
            "type": "string"
          },
          {
            "name": "check_id",
            "in": "path",
            "required": true,
            "type": "string"
          }
        ],
        "tags": [
          "Monitoring"
        ]
      },
      "patch": {
        "operationId": "UpdateCheck",
        "responses": {
          "200": {
            "description": "",
            "schema": {
              "$ref": "#/definitions/monitoringCheck"
            }
          },
          "401": {
            "description": "Returned when an unauthorized request is attempted.",
            "schema": {
              "$ref": "#/definitions/apiStatus"
            }
          },
          "500": {
            "description": "Internal server error.",
            "schema": {
              "$ref": "#/definitions/apiStatus"
            }
          },
          "default": {
            "description": "Default error structure.",
            "schema": {
              "$ref": "#/definitions/apiStatus"
            }
          }
        },
        "parameters": [
          {
            "name": "stack_id",
            "in": "path",
            "required": true,
            "type": "string"
          },
          {
            "name": "monitor_id",
            "in": "path",
            "required": true,
            "type": "string"
          },
          {
            "name": "check_id",
            "in": "path",
            "required": true,
            "type": "string"
          },
          {
            "name": "body",
            "in": "body",
            "required": true,
            "schema": {
              "$ref": "#/definitions/monitoringPatchCheckMessage"
            }
          }
        ],
        "tags": [
          "Monitoring"
        ]
      }
    },
    "/monitoring/v1/stacks/{stack_id}/http_monitors/{monitor_id}/checks/{check_id}/disable": {
      "post": {
        "operationId": "DisableCheck",
        "responses": {
          "200": {
            "description": "",
            "schema": {
              "$ref": "#/definitions/monitoringDisableCheckResponse"
            }
          },
          "401": {
            "description": "Returned when an unauthorized request is attempted.",
            "schema": {
              "$ref": "#/definitions/apiStatus"
            }
          },
          "500": {
            "description": "Internal server error.",
            "schema": {
              "$ref": "#/definitions/apiStatus"
            }
          },
          "default": {
            "description": "Default error structure.",
            "schema": {
              "$ref": "#/definitions/apiStatus"
            }
          }
        },
        "parameters": [
          {
            "name": "stack_id",
            "in": "path",
            "required": true,
            "type": "string"
          },
          {
            "name": "monitor_id",
            "in": "path",
            "required": true,
            "type": "string"
          },
          {
            "name": "check_id",
            "in": "path",
            "required": true,
            "type": "string"
          }
        ],
        "tags": [
          "Monitoring"
        ]
      }
    },
    "/monitoring/v1/stacks/{stack_id}/http_monitors/{monitor_id}/checks/{check_id}/enable": {
      "post": {
        "operationId": "EnableCheck",
        "responses": {
          "200": {
            "description": "",
            "schema": {
              "$ref": "#/definitions/monitoringEnableCheckResponse"
            }
          },
          "401": {
            "description": "Returned when an unauthorized request is attempted.",
            "schema": {
              "$ref": "#/definitions/apiStatus"
            }
          },
          "500": {
            "description": "Internal server error.",
            "schema": {
              "$ref": "#/definitions/apiStatus"
            }
          },
          "default": {
            "description": "Default error structure.",
            "schema": {
              "$ref": "#/definitions/apiStatus"
            }
          }
        },
        "parameters": [
          {
            "name": "stack_id",
            "in": "path",
            "required": true,
            "type": "string"
          },
          {
            "name": "monitor_id",
            "in": "path",
            "required": true,
            "type": "string"
          },
          {
            "name": "check_id",
            "in": "path",
            "required": true,
            "type": "string"
          }
        ],
        "tags": [
          "Monitoring"
        ]
      }
    },
    "/monitoring/v1/stacks/{stack_id}/http_monitors/{monitor_id}/errors": {
      "get": {
        "operationId": "GetHttpMonitorErrors",
        "responses": {
          "200": {
            "description": "",
            "schema": {
              "$ref": "#/definitions/monitoringGetMonitorErrorsResponse"
            }
          },
          "401": {
            "description": "Returned when an unauthorized request is attempted.",
            "schema": {
              "$ref": "#/definitions/apiStatus"
            }
          },
          "500": {
            "description": "Internal server error.",
            "schema": {
              "$ref": "#/definitions/apiStatus"
            }
          },
          "default": {
            "description": "Default error structure.",
            "schema": {
              "$ref": "#/definitions/apiStatus"
            }
          }
        },
        "parameters": [
          {
            "name": "stack_id",
            "in": "path",
            "required": true,
            "type": "string"
          },
          {
            "name": "monitor_id",
            "in": "path",
            "required": true,
            "type": "string"
          }
        ],
        "tags": [
          "Monitoring"
        ]
      }
    },
    "/monitoring/v1/stacks/{stack_id}/http_monitors/{monitor_id}/locations": {
      "get": {
        "operationId": "GetHttpMonitorLocations",
        "responses": {
          "200": {
            "description": "",
            "schema": {
              "$ref": "#/definitions/monitoringGetHttpMonitorLocationsResponse"
            }
          },
          "401": {
            "description": "Returned when an unauthorized request is attempted.",
            "schema": {
              "$ref": "#/definitions/apiStatus"
            }
          },
          "500": {
            "description": "Internal server error.",
            "schema": {
              "$ref": "#/definitions/apiStatus"
            }
          },
          "default": {
            "description": "Default error structure.",
            "schema": {
              "$ref": "#/definitions/apiStatus"
            }
          }
        },
        "parameters": [
          {
            "name": "stack_id",
            "in": "path",
            "required": true,
            "type": "string"
          },
          {
            "name": "monitor_id",
            "in": "path",
            "required": true,
            "type": "string"
          }
        ],
        "tags": [
          "Monitoring"
        ]
      }
    },
    "/monitoring/v1/stacks/{stack_id}/locations": {
      "get": {
        "operationId": "GetLocations",
        "responses": {
          "200": {
            "description": "",
            "schema": {
              "$ref": "#/definitions/monitoringGetLocationsResponse"
            }
          },
          "401": {
            "description": "Returned when an unauthorized request is attempted.",
            "schema": {
              "$ref": "#/definitions/apiStatus"
            }
          },
          "500": {
            "description": "Internal server error.",
            "schema": {
              "$ref": "#/definitions/apiStatus"
            }
          },
          "default": {
            "description": "Default error structure.",
            "schema": {
              "$ref": "#/definitions/apiStatus"
            }
          }
        },
        "parameters": [
          {
            "name": "stack_id",
            "in": "path",
            "required": true,
            "type": "string"
          }
        ],
        "tags": [
          "Monitoring"
        ]
      }
    }
  },
  "definitions": {
    "CheckComparator": {
      "type": "string",
      "enum": [
        "EQ",
        "GT",
        "GTE",
        "LT",
        "LTE",
        "NEQ",
        "EX",
        "NEX",
        "RE",
        "C",
        "NC"
      ],
      "default": "EQ"
    },
    "CheckMetric": {
      "type": "string",
      "enum": [
        "STATUS",
        "CODE"
      ],
      "default": "STATUS"
    },
    "CheckMonitorKind": {
      "type": "string",
      "enum": [
        "HTTP"
      ],
      "default": "HTTP"
    },
    "GetHttpMonitorLocationsResponseLocationWithAnalytics": {
      "type": "object",
      "properties": {
        "location": {
          "$ref": "#/definitions/schemamonitoringLocation"
        },
        "statusCode": {
          "type": "integer",
          "format": "int32"
        },
        "responseTime": {
          "type": "number",
          "format": "double"
        }
      }
    },
    "HttpMonitorBasicAuth": {
      "type": "object",
      "properties": {
        "username": {
          "type": "string"
        },
        "password": {
          "type": "string"
        }
      }
    },
    "HttpMonitorIpVersion": {
      "type": "string",
      "enum": [
        "IPV4",
        "IPV6"
      ],
      "default": "IPV4"
    },
    "apiStatus": {
      "type": "object",
      "properties": {
        "code": {
          "type": "integer",
          "format": "int32"
        },
        "error": {
          "type": "string"
        },
        "details": {
          "type": "array",
          "items": {
            "$ref": "#/definitions/apiStatusDetail"
          }
        }
      }
    },
    "apiStatusDetail": {
      "type": "object",
      "properties": {
        "@type": {
          "type": "string"
        }
      },
      "required": [
        "@type"
      ],
      "discriminator": "@type"
    },
    "monitoringBulkDeleteChecksRequest": {
      "type": "object",
      "properties": {
        "checkIds": {
          "type": "array",
          "items": {
            "type": "string"
          }
        }
      }
    },
    "monitoringBulkDeleteChecksResponse": {
      "type": "object"
    },
    "monitoringBulkDeleteHttpMonitorsRequest": {
      "type": "object",
      "properties": {
        "monitorIds": {
          "type": "array",
          "items": {
            "type": "string"
          }
        }
      }
    },
    "monitoringBulkDeleteHttpMonitorsResponse": {
      "type": "object"
    },
    "monitoringCheck": {
      "type": "object",
      "properties": {
        "id": {
          "type": "string"
        },
        "remoteId": {
          "type": "string"
        },
        "monitorId": {
          "type": "string"
        },
        "monitorKind": {
          "$ref": "#/definitions/CheckMonitorKind"
        },
        "metric": {
          "$ref": "#/definitions/CheckMetric"
        },
        "comparator": {
          "$ref": "#/definitions/CheckComparator"
        },
        "value": {
          "type": "string"
        },
        "alarmDelay": {
          "type": "integer",
          "format": "int32"
        },
        "alarmEvery": {
          "type": "integer",
          "format": "int32"
        },
        "alarmUntilSilenced": {
          "type": "boolean",
          "format": "boolean"
        },
        "enabled": {
          "type": "boolean",
          "format": "boolean"
        },
        "minimumLocations": {
          "type": "integer",
          "format": "int32"
        }
      }
    },
    "monitoringCreateCheckRequest": {
      "type": "object",
      "properties": {
        "monitorKind": {
          "$ref": "#/definitions/CheckMonitorKind"
        },
        "metric": {
          "$ref": "#/definitions/CheckMetric"
        },
        "comparator": {
          "$ref": "#/definitions/CheckComparator"
        },
        "value": {
          "type": "string"
        },
        "alarmDelay": {
          "type": "integer",
          "format": "int32"
        },
        "alarmEvery": {
          "type": "integer",
          "format": "int32"
        },
        "alarmUntilSilenced": {
          "type": "boolean",
          "format": "boolean"
        },
        "enabled": {
          "type": "boolean",
          "format": "boolean"
        },
        "minimumLocations": {
          "type": "integer",
          "format": "int32"
        }
      }
    },
    "monitoringCreateHttpMonitorRequest": {
      "type": "object",
      "properties": {
        "name": {
          "type": "string"
        },
        "url": {
          "type": "string"
        },
        "method": {
          "$ref": "#/definitions/monitoringHttpMonitorMethod"
        },
        "timeout": {
          "type": "integer",
          "format": "int32"
        },
        "ipVersion": {
          "$ref": "#/definitions/HttpMonitorIpVersion"
        },
        "locations": {
          "type": "array",
          "items": {
            "type": "string"
          }
        },
        "body": {
          "type": "string"
        },
        "basicAuth": {
          "$ref": "#/definitions/HttpMonitorBasicAuth"
        },
        "headers": {
          "type": "object",
          "additionalProperties": {
            "type": "string"
          }
        },
        "validateCertificate": {
          "type": "boolean",
          "format": "boolean"
        }
      }
    },
    "monitoringDeleteCheckResponse": {
      "type": "object"
    },
    "monitoringDeleteHttpMonitorResponse": {
      "type": "object"
    },
    "monitoringDisableCheckResponse": {
      "type": "object"
    },
    "monitoringEnableCheckResponse": {
      "type": "object"
    },
    "monitoringError": {
      "type": "object",
      "properties": {
        "monitorId": {
          "type": "string"
        },
        "locations": {
          "type": "array",
          "items": {
            "$ref": "#/definitions/schemamonitoringLocation"
          }
        },
        "error": {
          "type": "string"
        },
        "createdAt": {
          "type": "string",
          "format": "date-time"
        }
      }
    },
    "monitoringGetCheckResponse": {
      "type": "object",
      "properties": {
        "record": {
          "$ref": "#/definitions/monitoringCheck"
        }
      }
    },
    "monitoringGetChecksResponse": {
      "type": "object",
      "properties": {
        "pageInfo": {
          "$ref": "#/definitions/paginationPageInfo"
        },
        "results": {
          "type": "array",
          "items": {
            "$ref": "#/definitions/monitoringCheck"
          }
        }
      }
    },
    "monitoringGetHttpMonitorLocationsResponse": {
      "type": "object",
      "properties": {
        "monitor": {
          "$ref": "#/definitions/monitoringHttpMonitor"
        },
        "locations": {
          "type": "array",
          "items": {
            "$ref": "#/definitions/GetHttpMonitorLocationsResponseLocationWithAnalytics"
          }
        }
      }
    },
    "monitoringGetHttpMonitorResponse": {
      "type": "object",
      "properties": {
        "record": {
          "$ref": "#/definitions/monitoringHttpMonitor"
        }
      }
    },
    "monitoringGetHttpMonitorsResponse": {
      "type": "object",
      "properties": {
        "pageInfo": {
          "$ref": "#/definitions/paginationPageInfo"
        },
        "results": {
          "type": "array",
          "items": {
            "$ref": "#/definitions/monitoringHttpMonitor"
          }
        }
      }
    },
    "monitoringGetLocationsResponse": {
      "type": "object",
      "properties": {
        "results": {
          "type": "array",
          "items": {
            "$ref": "#/definitions/schemamonitoringLocation"
          }
        }
      }
    },
    "monitoringGetMonitorErrorsResponse": {
      "type": "object",
      "properties": {
        "results": {
          "type": "array",
          "items": {
            "$ref": "#/definitions/monitoringError"
          }
        }
      }
    },
    "monitoringHttpMonitor": {
      "type": "object",
      "properties": {
        "id": {
          "type": "string"
        },
        "remoteId": {
          "type": "string"
        },
        "name": {
          "type": "string"
        },
        "url": {
          "type": "string"
        },
        "currentStatus": {
          "type": "string"
        },
        "uptime": {
          "type": "number",
          "format": "double"
        },
        "avgResponseTime": {
          "type": "number",
          "format": "double"
        },
        "method": {
          "$ref": "#/definitions/monitoringHttpMonitorMethod"
        },
        "timeout": {
          "type": "integer",
          "format": "int32"
        },
        "ipVersion": {
          "$ref": "#/definitions/HttpMonitorIpVersion"
        },
        "locations": {
          "type": "array",
          "items": {
            "$ref": "#/definitions/schemamonitoringLocation"
          }
        },
        "body": {
          "type": "string"
        },
        "basicAuth": {
          "$ref": "#/definitions/HttpMonitorBasicAuth"
        },
        "headers": {
          "type": "object",
          "additionalProperties": {
            "type": "string"
          }
        },
        "validateCertificate": {
          "type": "boolean",
          "format": "boolean"
        }
      }
    },
    "monitoringHttpMonitorMethod": {
      "type": "string",
      "enum": [
        "GET",
        "POST"
      ],
      "default": "GET"
    },
    "monitoringPatchCheckMessage": {
      "type": "object",
      "properties": {
        "metric": {
          "$ref": "#/definitions/CheckMetric"
        },
        "comparator": {
          "$ref": "#/definitions/CheckComparator"
        },
        "value": {
          "type": "string"
        },
        "alarmDelay": {
          "type": "integer",
          "format": "int32"
        },
        "alarmEvery": {
          "type": "integer",
          "format": "int32"
        },
        "alarmUntilSilenced": {
          "type": "boolean",
          "format": "boolean"
        },
        "enabled": {
          "type": "boolean",
          "format": "boolean"
        },
        "minimumLocations": {
          "type": "integer",
          "format": "int32"
        }
      }
    },
    "monitoringPatchHttpMonitorMessage": {
      "type": "object",
      "properties": {
        "name": {
          "type": "string"
        },
        "url": {
          "type": "string"
        },
        "method": {
          "$ref": "#/definitions/monitoringHttpMonitorMethod"
        },
        "timeout": {
          "type": "integer",
          "format": "int32"
        },
        "ipVersion": {
          "$ref": "#/definitions/HttpMonitorIpVersion"
        },
        "locations": {
          "type": "array",
          "items": {
            "type": "string"
          }
        },
        "body": {
          "type": "string"
        },
        "basicAuth": {
          "$ref": "#/definitions/HttpMonitorBasicAuth"
        },
        "headers": {
          "type": "object",
          "additionalProperties": {
            "type": "string"
          }
        },
        "validateCertificate": {
          "type": "boolean",
          "format": "boolean"
        }
      }
    },
    "paginationPageInfo": {
      "type": "object",
      "properties": {
        "totalCount": {
          "type": "string",
          "title": "total_count is the total number of items in the dataset"
        },
        "hasPreviousPage": {
          "type": "boolean",
          "format": "boolean",
          "title": "has_previous_page will be true when a previous page of data exists"
        },
        "hasNextPage": {
          "type": "boolean",
          "format": "boolean",
          "title": "has_next_page will be true when another page of data is available"
        },
        "startCursor": {
          "type": "string",
          "title": "start_cursor will be the cursor for the first item in the set of data returned"
        },
        "endCursor": {
          "type": "string",
          "title": "end_cursor will be the cursor for the last item in the set of data returned"
        }
      },
      "description": "PageInfo provides information about a paginated response.\nThis is modeleted after the GraphQL Relay spec to support both cursor\nbased pagination and traditional offset based pagination."
    },
    "paginationPageRequest": {
      "type": "object",
      "properties": {
        "first": {
          "type": "string",
          "title": "first is the number of items desired"
        },
        "after": {
          "type": "string",
          "title": "after is the cursor value after which data will be returned"
        },
        "filter": {
          "type": "string",
          "title": "filter will accept sql style constraints"
        },
        "sortBy": {
          "type": "string",
          "title": "sort_by will sort the response by the given field"
        }
      },
      "description": "PageRequest is provided to a call which accepts paginated requests.\nThis is modeled after the GraphQL Relay spec to support both cursor\nbased pagination and traditional offset based pagination."
    },
    "schemamonitoringLocation": {
      "type": "object",
      "properties": {
        "id": {
          "type": "string"
        },
        "name": {
          "type": "string"
        },
        "city": {
          "type": "string"
        },
        "country": {
          "type": "string"
        },
        "provider": {
          "type": "string"
        }
      }
    },
    "stackpath.rpc.BadRequest": {
      "allOf": [
        {
          "$ref": "#/definitions/apiStatusDetail"
        },
        {
          "type": "object",
          "properties": {
            "fieldViolations": {
              "type": "array",
              "items": {
                "$ref": "#/definitions/stackpath.rpc.BadRequest.FieldViolation"
              }
            }
          }
        }
      ]
    },
    "stackpath.rpc.BadRequest.FieldViolation": {
      "type": "object",
      "properties": {
        "field": {
          "type": "string"
        },
        "description": {
          "type": "string"
        }
      }
    },
    "stackpath.rpc.Help": {
      "allOf": [
        {
          "$ref": "#/definitions/apiStatusDetail"
        },
        {
          "type": "object",
          "properties": {
            "links": {
              "type": "array",
              "items": {
                "$ref": "#/definitions/stackpath.rpc.Help.Link"
              }
            }
          }
        }
      ]
    },
    "stackpath.rpc.Help.Link": {
      "type": "object",
      "properties": {
        "description": {
          "type": "string"
        },
        "url": {
          "type": "string"
        }
      }
    },
    "stackpath.rpc.LocalizedMessage": {
      "allOf": [
        {
          "$ref": "#/definitions/apiStatusDetail"
        },
        {
          "type": "object",
          "properties": {
            "locale": {
              "type": "string"
            },
            "message": {
              "type": "string"
            }
          }
        }
      ]
    },
    "stackpath.rpc.PreconditionFailure": {
      "allOf": [
        {
          "$ref": "#/definitions/apiStatusDetail"
        },
        {
          "type": "object",
          "properties": {
            "violations": {
              "type": "array",
              "items": {
                "$ref": "#/definitions/stackpath.rpc.PreconditionFailure.Violation"
              }
            }
          }
        }
      ]
    },
    "stackpath.rpc.PreconditionFailure.Violation": {
      "type": "object",
      "properties": {
        "type": {
          "type": "string"
        },
        "subject": {
          "type": "string"
        },
        "description": {
          "type": "string"
        }
      }
    },
    "stackpath.rpc.QuotaFailure": {
      "allOf": [
        {
          "$ref": "#/definitions/apiStatusDetail"
        },
        {
          "type": "object",
          "properties": {
            "violations": {
              "type": "array",
              "items": {
                "$ref": "#/definitions/stackpath.rpc.QuotaFailure.Violation"
              }
            }
          }
        }
      ]
    },
    "stackpath.rpc.QuotaFailure.Violation": {
      "type": "object",
      "properties": {
        "subject": {
          "type": "string"
        },
        "description": {
          "type": "string"
        }
      }
    },
    "stackpath.rpc.RequestInfo": {
      "allOf": [
        {
          "$ref": "#/definitions/apiStatusDetail"
        },
        {
          "type": "object",
          "properties": {
            "requestId": {
              "type": "string"
            },
            "servingData": {
              "type": "string"
            }
          }
        }
      ]
    },
    "stackpath.rpc.ResourceInfo": {
      "allOf": [
        {
          "$ref": "#/definitions/apiStatusDetail"
        },
        {
          "type": "object",
          "properties": {
            "resourceType": {
              "type": "string"
            },
            "resourceName": {
              "type": "string"
            },
            "owner": {
              "type": "string"
            },
            "description": {
              "type": "string"
            }
          }
        }
      ]
    },
    "stackpath.rpc.RetryInfo": {
      "allOf": [
        {
          "$ref": "#/definitions/apiStatusDetail"
        },
        {
          "type": "object",
          "properties": {
            "retryDelay": {
              "type": "string"
            }
          }
        }
      ]
    }
  },
  "securityDefinitions": {
    "OAuth2": {
      "type": "oauth2",
      "flow": "application",
      "tokenUrl": "https://gateway.stackpath.com/identity/v1/oauth2/token"
    }
  },
  "security": [
    {
      "OAuth2": []
    }
  ]
}
